2017-02-12 13:06:08,950 - ShoppingList - INFO - Send mail to Enrico Arbeit <enrico.bahls@dataglobal.com>
2017-02-12 13:08:32,964 - ShoppingList - INFO - Start
2017-02-12 13:08:32,994 - ShoppingList - INFO - Start
2017-02-12 13:08:33,092 - ShoppingList - INFO - Start
2017-02-12 13:08:33,444 - ShoppingList - INFO - Start
2017-02-12 13:11:47,722 - ShoppingList - INFO - add Box with url http://zbox:5000/query/product/1 to Print List
2017-02-12 13:11:47,740 - ShoppingList - INFO - add Butter with url http://zbox:5000/query/product/2 to Print List
2017-02-12 13:11:47,751 - ShoppingList - INFO - add Leberwurst with url http://zbox:5000/query/product/3 to Print List
2017-02-12 13:11:47,762 - ShoppingList - INFO - add Kochschinken with url http://zbox:5000/query/product/4 to Print List
2017-02-12 13:11:47,774 - ShoppingList - INFO - add Eier with url http://zbox:5000/query/product/5 to Print List
2017-02-12 13:11:53,044 - ShoppingList - INFO - update url http://zbox:5000/query/location/1 to 2 Print List
2017-02-12 13:11:53,060 - ShoppingList - INFO - add Badezimmer with url http://zbox:5000/query/location/2 to Print List
2017-02-12 13:11:53,074 - ShoppingList - INFO - add Kühlschrank with url http://zbox:5000/query/location/3 to Print List
2017-02-12 13:11:57,194 - ShoppingList - INFO - update url http://zbox:5000/query/location/1 to 3 Print List
2017-02-12 13:11:57,209 - ShoppingList - INFO - update url http://zbox:5000/query/location/2 to 2 Print List
2017-02-12 13:11:57,222 - ShoppingList - INFO - update url http://zbox:5000/query/location/3 to 2 Print List
2017-02-12 13:12:01,691 - ShoppingList - INFO - update url http://zbox:5000/query/location/1 to 4 Print List
2017-02-12 13:12:01,702 - ShoppingList - INFO - update url http://zbox:5000/query/location/2 to 3 Print List
2017-02-12 13:12:01,713 - ShoppingList - INFO - update url http://zbox:5000/query/location/3 to 3 Print List
2017-02-12 13:12:07,668 - ShoppingList - INFO - add Lebensmittel with url http://zbox:5000/query/category/1 to Print List
2017-02-12 13:12:07,682 - ShoppingList - INFO - add Milch Eier with url http://zbox:5000/query/category/2 to Print List
2017-02-12 13:12:07,695 - ShoppingList - INFO - add Alkohol with url http://zbox:5000/query/category/3 to Print List
2017-02-12 13:12:07,707 - ShoppingList - INFO - add Fleisch with url http://zbox:5000/query/category/4 to Print List
2017-02-12 13:12:15,148 - ShoppingList - INFO - update url http://zbox:5000/query/category/1 to 2 Print List
2017-02-12 13:12:15,163 - ShoppingList - INFO - update url http://zbox:5000/query/category/2 to 2 Print List
2017-02-12 13:12:15,174 - ShoppingList - INFO - update url http://zbox:5000/query/category/3 to 2 Print List
2017-02-12 13:12:15,183 - ShoppingList - INFO - update url http://zbox:5000/query/category/4 to 2 Print List
2017-02-12 13:12:22,222 - ShoppingList - DEBUG - 25 batches to print
2017-02-12 13:12:22,223 - ShoppingList - DEBUG - add page 0/1
2017-02-12 13:12:22,224 - ShoppingList - DEBUG - [(0, 6)]
2017-02-12 13:12:22,225 - ShoppingList - DEBUG - [(0, 5)]
2017-02-12 13:12:22,301 - ShoppingList - DEBUG - http://zbox:5000/query/location/1
2017-02-12 13:12:22,319 - ShoppingList - DEBUG - http://zbox:5000/query/location/1
2017-02-12 13:12:22,325 - ShoppingList - DEBUG - http://zbox:5000/query/location/1
2017-02-12 13:12:22,332 - ShoppingList - DEBUG - http://zbox:5000/query/location/1
2017-02-12 13:12:22,426 - ShoppingList - DEBUG - http://zbox:5000/query/location/1
2017-02-12 13:12:22,427 - ShoppingList - DEBUG - 124
2017-02-12 13:12:22,430 - ShoppingList - DEBUG - http://zbox:5000/query/location/1
2017-02-12 13:12:22,432 - ShoppingList - DEBUG - 124
2017-02-12 13:12:22,448 - ShoppingList - DEBUG - http://zbox:5000/query/location/1
2017-02-12 13:12:22,449 - ShoppingList - DEBUG - 124
2017-02-12 13:12:22,482 - ShoppingList - DEBUG - http://zbox:5000/query/product/2
2017-02-12 13:12:22,475 - ShoppingList - DEBUG - http://zbox:5000/query/product/1
2017-02-12 13:12:22,532 - ShoppingList - DEBUG - http://zbox:5000/query/location/1
2017-02-12 13:12:22,536 - ShoppingList - DEBUG - 124
2017-02-12 13:12:22,552 - ShoppingList - DEBUG - http://zbox:5000/query/location/2
2017-02-12 13:12:22,571 - ShoppingList - DEBUG - http://zbox:5000/query/product/1
2017-02-12 13:12:22,573 - ShoppingList - DEBUG - 124
2017-02-12 13:12:22,585 - ShoppingList - DEBUG - http://zbox:5000/query/location/3
2017-02-12 13:12:22,594 - ShoppingList - DEBUG - http://zbox:5000/query/product/2
2017-02-12 13:12:22,595 - ShoppingList - DEBUG - 124
2017-02-12 13:12:22,603 - ShoppingList - DEBUG - http://zbox:5000/query/category/4
2017-02-12 13:12:22,620 - ShoppingList - DEBUG - http://zbox:5000/query/category/1
2017-02-12 13:12:22,661 - ShoppingList - DEBUG - http://zbox:5000/query/location/2
2017-02-12 13:12:22,662 - ShoppingList - DEBUG - 124
2017-02-12 13:12:22,691 - ShoppingList - DEBUG - http://zbox:5000/query/location/3
2017-02-12 13:12:22,691 - ShoppingList - DEBUG - http://zbox:5000/query/location/3
2017-02-12 13:12:22,692 - ShoppingList - DEBUG - 124
2017-02-12 13:12:22,712 - ShoppingList - DEBUG - http://zbox:5000/query/location/2
2017-02-12 13:12:22,763 - ShoppingList - DEBUG - http://zbox:5000/query/category/4
2017-02-12 13:12:22,763 - ShoppingList - DEBUG - 124
2017-02-12 13:12:22,781 - ShoppingList - DEBUG - http://zbox:5000/query/category/1
2017-02-12 13:12:22,784 - ShoppingList - DEBUG - http://zbox:5000/query/location/2
2017-02-12 13:12:22,784 - ShoppingList - DEBUG - 124
2017-02-12 13:12:22,787 - ShoppingList - DEBUG - http://zbox:5000/query/location/3
2017-02-12 13:12:22,788 - ShoppingList - DEBUG - 124
2017-02-12 13:12:22,808 - ShoppingList - DEBUG - http://zbox:5000/query/product/4
2017-02-12 13:12:22,816 - ShoppingList - DEBUG - http://zbox:5000/query/location/2
2017-02-12 13:12:22,818 - ShoppingList - DEBUG - 124
2017-02-12 13:12:22,845 - ShoppingList - DEBUG - http://zbox:5000/query/location/3
2017-02-12 13:12:22,869 - ShoppingList - DEBUG - http://zbox:5000/query/category/1
2017-02-12 13:12:22,902 - ShoppingList - DEBUG - http://zbox:5000/query/product/4
2017-02-12 13:12:22,903 - ShoppingList - DEBUG - 124
2017-02-12 13:12:22,932 - ShoppingList - DEBUG - http://zbox:5000/query/product/5
2017-02-12 13:12:22,947 - ShoppingList - DEBUG - http://zbox:5000/query/location/2
2017-02-12 13:12:22,948 - ShoppingList - DEBUG - 124
2017-02-12 13:12:22,966 - ShoppingList - DEBUG - http://zbox:5000/query/category/3
2017-02-12 13:12:23,018 - ShoppingList - DEBUG - http://zbox:5000/query/location/3
2017-02-12 13:12:23,018 - ShoppingList - DEBUG - 124
2017-02-12 13:12:23,046 - ShoppingList - DEBUG - http://zbox:5000/query/product/5
2017-02-12 13:12:23,047 - ShoppingList - DEBUG - 124
2017-02-12 13:12:23,051 - ShoppingList - DEBUG - http://zbox:5000/query/category/3
2017-02-12 13:12:23,052 - ShoppingList - DEBUG - 124
2017-02-12 13:12:23,054 - ShoppingList - DEBUG - http://zbox:5000/query/category/1
2017-02-12 13:12:23,056 - ShoppingList - DEBUG - 124
2017-02-12 13:12:23,070 - ShoppingList - DEBUG - http://zbox:5000/query/category/4
2017-02-12 13:12:23,072 - ShoppingList - DEBUG - http://zbox:5000/query/category/2
2017-02-12 13:12:23,088 - ShoppingList - DEBUG - http://zbox:5000/query/category/2
2017-02-12 13:12:23,091 - ShoppingList - DEBUG - http://zbox:5000/query/product/3
2017-02-12 13:12:23,177 - ShoppingList - DEBUG - http://zbox:5000/query/category/2
2017-02-12 13:12:23,177 - ShoppingList - DEBUG - 124
2017-02-12 13:12:23,181 - ShoppingList - DEBUG - http://zbox:5000/query/category/2
2017-02-12 13:12:23,181 - ShoppingList - DEBUG - 124
2017-02-12 13:12:23,184 - ShoppingList - DEBUG - http://zbox:5000/query/product/3
2017-02-12 13:12:23,184 - ShoppingList - DEBUG - 124
2017-02-12 13:12:23,180 - ShoppingList - DEBUG - http://zbox:5000/query/category/4
2017-02-12 13:12:23,194 - ShoppingList - DEBUG - 124
2017-02-12 13:12:23,196 - ShoppingList - DEBUG - http://zbox:5000/query/category/3
2017-02-12 13:12:23,271 - ShoppingList - DEBUG - http://zbox:5000/query/category/3
2017-02-12 13:12:23,272 - ShoppingList - DEBUG - 124
2017-02-12 13:12:41,870 - ShoppingList - DEBUG - query category
2017-02-12 13:12:46,829 - ShoppingList - DEBUG - query category
2017-02-12 13:14:32,217 - ShoppingList - INFO - Start
2017-02-12 13:14:32,260 - ShoppingList - INFO - Start
2017-02-12 13:14:32,280 - ShoppingList - INFO - Start
2017-02-12 13:14:32,532 - ShoppingList - INFO - Start
2017-02-12 13:14:42,909 - ShoppingList - DEBUG - query category
2017-02-12 13:15:18,572 - ShoppingList - INFO - Start
2017-02-12 13:15:22,780 - ShoppingList - INFO - Start
2017-02-12 13:15:26,508 - ShoppingList - DEBUG - query category
2017-02-12 13:16:07,230 - ShoppingList - INFO - Start
2017-02-12 13:16:15,243 - ShoppingList - INFO - Start
2017-02-12 13:16:15,284 - ShoppingList - INFO - Start
2017-02-12 13:16:15,303 - ShoppingList - INFO - Start
2017-02-12 13:16:15,534 - ShoppingList - INFO - Start
2017-02-12 13:16:18,427 - ShoppingList - DEBUG - query category
2017-02-12 13:16:26,349 - ShoppingList - INFO - Start
2017-02-12 13:16:30,458 - ShoppingList - INFO - Start
2017-02-12 13:16:34,188 - ShoppingList - DEBUG - query category
2017-02-12 13:17:37,515 - ShoppingList - INFO - Start
2017-02-12 13:18:11,819 - ShoppingList - INFO - Start
2017-02-12 13:18:15,924 - ShoppingList - INFO - Start
2017-02-12 13:18:19,655 - ShoppingList - DEBUG - query category
2017-02-12 13:18:23,840 - ShoppingList - DEBUG - query category
2017-02-12 13:18:43,154 - ShoppingList - DEBUG - query category
2017-02-12 13:18:52,716 - ShoppingList - DEBUG - query location
2017-02-12 13:18:52,738 - ShoppingList - DEBUG - Box
2017-02-12 13:19:02,503 - ShoppingList - DEBUG - query category
2017-02-12 13:19:02,520 - ShoppingList - DEBUG - Leberwurst
2017-02-12 13:19:02,521 - ShoppingList - DEBUG - Kochschinken
2017-02-12 13:19:06,851 - ShoppingList - DEBUG - get shopping item from 3
