2017-02-10 19:14:27,577 - ShoppingList - INFO - Start
2017-02-10 19:14:31,657 - ShoppingList - INFO - Start
2017-02-10 20:04:10,434 - ShoppingList - INFO - Start
2017-02-10 20:04:10,495 - ShoppingList - INFO - Start
2017-02-10 20:04:10,569 - ShoppingList - INFO - Start
2017-02-10 20:04:10,660 - ShoppingList - INFO - Start
2017-02-10 21:36:24,313 - ShoppingList - INFO - Start
2017-02-10 21:37:58,030 - ShoppingList - INFO - Start
2017-02-10 21:39:59,239 - ShoppingList - INFO - Start
2017-02-10 21:40:53,253 - ShoppingList - INFO - Start
2017-02-11 22:08:26,122 - ShoppingList - INFO - Start
2017-02-11 22:08:30,494 - ShoppingList - INFO - Start
2017-02-11 22:14:58,327 - ShoppingList - INFO - Start
2017-02-11 22:27:26,126 - ShoppingList - INFO - Start
2017-02-11 22:39:07,501 - ShoppingList - INFO - Start
2017-02-11 22:51:14,378 - ShoppingList - INFO - Start
2017-02-11 22:51:18,475 - ShoppingList - INFO - Start
2017-02-11 22:52:25,548 - ShoppingList - INFO - add Küche with url http://zbox:5000/query/location/1 to Print List
2017-02-11 22:52:39,332 - ShoppingList - DEBUG - 5 batches to print
2017-02-11 22:52:39,333 - ShoppingList - DEBUG - add page 0/1
2017-02-11 22:52:39,333 - ShoppingList - DEBUG - [(0, 6)]
2017-02-11 22:52:39,334 - ShoppingList - DEBUG - [(0, 1)]
2017-02-11 22:52:39,409 - ShoppingList - DEBUG - http://zbox:5000/query/location/1
2017-02-11 22:52:39,505 - ShoppingList - DEBUG - http://zbox:5000/query/location/1
2017-02-11 22:52:39,506 - ShoppingList - DEBUG - 124
2017-02-11 22:52:57,394 - ShoppingList - DEBUG - query location
2017-02-11 22:52:57,404 - ShoppingList - DEBUG - Box
2017-02-11 22:53:29,057 - ShoppingList - DEBUG - query location
2017-02-11 22:53:29,074 - ShoppingList - DEBUG - Box
2017-02-11 22:54:12,717 - ShoppingList - DEBUG - query location
2017-02-11 22:54:12,735 - ShoppingList - DEBUG - Box
2017-02-11 22:54:29,290 - ShoppingList - INFO - Start
2017-02-11 22:54:43,106 - ShoppingList - DEBUG - query location
2017-02-11 22:54:43,153 - ShoppingList - DEBUG - Box
2017-02-11 22:55:22,855 - ShoppingList - DEBUG - query location
2017-02-11 22:55:22,871 - ShoppingList - DEBUG - Box
2017-02-11 22:55:26,604 - ShoppingList - DEBUG - get shopping item from 1
2017-02-11 22:55:26,611 - ShoppingList - DEBUG - get Product Box json : {"need": 0, "prise": 0.0, "name": "Box", "unit": "Packung"}
2017-02-11 22:55:26,621 - ShoppingList - DEBUG - {'need': u'1'}
2017-02-11 22:55:26,928 - ShoppingList - DEBUG - get shopping item from 1
2017-02-11 22:55:26,941 - ShoppingList - DEBUG - get Product Box json : {"need": 1, "prise": 0.0, "name": "Box", "unit": "Packung"}
2017-02-11 22:55:26,950 - ShoppingList - DEBUG - {'need': u'2'}
2017-02-11 22:55:27,830 - ShoppingList - DEBUG - get shopping item from 1
2017-02-11 22:55:27,836 - ShoppingList - DEBUG - get Product Box json : {"need": 2, "prise": 0.0, "name": "Box", "unit": "Packung"}
2017-02-11 22:55:27,847 - ShoppingList - DEBUG - {'need': u'3'}
2017-02-11 22:55:28,578 - ShoppingList - DEBUG - get shopping item from 1
2017-02-11 22:55:28,584 - ShoppingList - DEBUG - get Product Box json : {"need": 3, "prise": 0.0, "name": "Box", "unit": "Packung"}
2017-02-11 22:55:28,594 - ShoppingList - DEBUG - {'need': u'4'}
2017-02-11 22:56:04,832 - ShoppingList - INFO - Start
2017-02-11 22:56:09,570 - ShoppingList - INFO - Start
2017-02-11 22:56:24,220 - ShoppingList - DEBUG - get shopping item from 1
2017-02-11 22:56:24,254 - ShoppingList - DEBUG - get Product Box json : {"need": 4, "prise": 0.0, "name": "Box", "unit": "Packung"}
2017-02-11 22:56:24,267 - ShoppingList - DEBUG - {'need': u'5'}
2017-02-11 22:57:46,883 - ShoppingList - DEBUG - get shopping item from 1
2017-02-11 22:57:46,891 - ShoppingList - DEBUG - get Product Box json : {"need": 5, "prise": 0.0, "name": "Box", "unit": "Packung"}
2017-02-11 22:57:46,902 - ShoppingList - DEBUG - {'need': u'6'}
2017-02-11 23:01:39,427 - ShoppingList - INFO - Start
2017-02-11 23:02:18,752 - ShoppingList - INFO - Start
2017-02-11 23:02:22,980 - ShoppingList - DEBUG - Enrico
2017-02-11 23:02:53,725 - ShoppingList - DEBUG - Enrico
2017-02-11 23:02:53,726 - ShoppingList - DEBUG - Enrico2
2017-02-11 23:03:19,702 - ShoppingList - DEBUG - Enrico
2017-02-11 23:03:19,705 - ShoppingList - DEBUG - Enrico2
2017-02-11 23:03:48,001 - ShoppingList - DEBUG - Enrico
2017-02-11 23:03:48,003 - ShoppingList - DEBUG - Enrico2
2017-02-11 23:03:48,003 - ShoppingList - DEBUG - Emma
2017-02-11 23:04:21,932 - ShoppingList - DEBUG - Enrico
2017-02-11 23:04:21,935 - ShoppingList - DEBUG - Enrico2
2017-02-11 23:04:21,938 - ShoppingList - DEBUG - Emma
2017-02-11 23:06:03,065 - ShoppingList - DEBUG - Enrico
2017-02-11 23:06:03,066 - ShoppingList - DEBUG - Enrico2
2017-02-11 23:06:03,067 - ShoppingList - DEBUG - Emma
2017-02-11 23:06:49,963 - ShoppingList - DEBUG - Enrico
2017-02-11 23:06:49,964 - ShoppingList - DEBUG - Enrico2
2017-02-11 23:06:49,965 - ShoppingList - DEBUG - Emma
2017-02-11 23:07:35,247 - ShoppingList - DEBUG - 5 batches to print
2017-02-11 23:07:35,249 - ShoppingList - DEBUG - add page 0/1
2017-02-11 23:07:35,250 - ShoppingList - DEBUG - [(0, 6)]
2017-02-11 23:07:35,250 - ShoppingList - DEBUG - [(0, 1)]
2017-02-11 23:07:35,330 - ShoppingList - DEBUG - http://zbox:5000/query/location/1
2017-02-11 23:07:35,426 - ShoppingList - DEBUG - http://zbox:5000/query/location/1
2017-02-11 23:07:35,426 - ShoppingList - DEBUG - 124
2017-02-11 23:07:42,358 - ShoppingList - DEBUG - query location
2017-02-11 23:07:42,384 - ShoppingList - DEBUG - Box
2017-02-11 23:07:48,915 - ShoppingList - DEBUG - Enrico
2017-02-11 23:07:48,916 - ShoppingList - DEBUG - Enrico2
2017-02-11 23:07:48,916 - ShoppingList - DEBUG - Emma
2017-02-12 11:58:20,686 - ShoppingList - DEBUG - Enrico
2017-02-12 11:58:20,687 - ShoppingList - DEBUG - Enrico2
2017-02-12 11:58:20,688 - ShoppingList - DEBUG - Emma
2017-02-12 11:59:34,364 - ShoppingList - DEBUG - Enrico
2017-02-12 11:59:34,365 - ShoppingList - DEBUG - Enrico2
2017-02-12 11:59:34,366 - ShoppingList - DEBUG - Emma
2017-02-12 11:59:51,362 - ShoppingList - DEBUG - Enrico
2017-02-12 11:59:51,364 - ShoppingList - DEBUG - Enrico2
2017-02-12 11:59:51,364 - ShoppingList - DEBUG - Emma
2017-02-12 12:00:19,010 - ShoppingList - DEBUG - Enrico
2017-02-12 12:00:19,012 - ShoppingList - DEBUG - Enrico2
2017-02-12 12:00:19,013 - ShoppingList - DEBUG - Emma
2017-02-12 12:01:09,429 - ShoppingList - DEBUG - Enrico
2017-02-12 12:01:09,431 - ShoppingList - DEBUG - Enrico2
2017-02-12 12:01:09,431 - ShoppingList - DEBUG - Emma
2017-02-12 12:01:42,792 - ShoppingList - DEBUG - Enrico
2017-02-12 12:01:42,794 - ShoppingList - DEBUG - Enrico2
2017-02-12 12:01:42,795 - ShoppingList - DEBUG - Emma
2017-02-12 12:03:22,380 - ShoppingList - DEBUG - Enrico
2017-02-12 12:03:22,382 - ShoppingList - DEBUG - Enrico2
2017-02-12 12:03:22,383 - ShoppingList - DEBUG - Emma
2017-02-12 12:04:12,461 - ShoppingList - DEBUG - Enrico
2017-02-12 12:04:12,464 - ShoppingList - DEBUG - Enrico2
2017-02-12 12:04:12,465 - ShoppingList - DEBUG - Emma
2017-02-12 12:04:29,602 - ShoppingList - DEBUG - Enrico
2017-02-12 12:04:29,603 - ShoppingList - DEBUG - Enrico2
2017-02-12 12:04:29,604 - ShoppingList - DEBUG - Emma
2017-02-12 12:05:41,330 - ShoppingList - DEBUG - Enrico
2017-02-12 12:05:41,331 - ShoppingList - DEBUG - Enrico2
2017-02-12 12:05:41,332 - ShoppingList - DEBUG - Emma
2017-02-12 12:09:39,002 - ShoppingList - INFO - Start
2017-02-12 12:19:18,195 - ShoppingList - INFO - Start
2017-02-12 12:19:36,132 - ShoppingList - INFO - Start
2017-02-12 12:19:40,296 - ShoppingList - INFO - Start
2017-02-12 12:23:45,655 - ShoppingList - DEBUG - query location
2017-02-12 12:23:45,700 - ShoppingList - DEBUG - Box
2017-02-12 12:26:37,711 - ShoppingList - INFO - Send mail to Enrico <ebahls@googlemail.com>
2017-02-12 12:28:16,917 - ShoppingList - INFO - Start
2017-02-12 12:28:21,040 - ShoppingList - INFO - Send mail to Enrico <ebahls@googlemail.com>
2017-02-12 12:32:52,201 - ShoppingList - INFO - Start
2017-02-12 12:33:35,640 - ShoppingList - INFO - Send mail to Enrico <ebahls@googlemail.com>
2017-02-12 12:36:53,033 - ShoppingList - INFO - Start
2017-02-12 12:37:03,216 - ShoppingList - INFO - Send mail to Enrico <ebahls@googlemail.com>
2017-02-12 12:49:25,141 - ShoppingList - INFO - Start
2017-02-12 12:49:33,602 - ShoppingList - INFO - Start
2017-02-12 12:49:44,448 - ShoppingList - INFO - Send mail to Enrico <ebahls@googlemail.com>
2017-02-12 12:54:37,282 - ShoppingList - INFO - Start
2017-02-12 12:54:53,957 - ShoppingList - INFO - request
2017-02-12 12:55:24,371 - ShoppingList - DEBUG - query location
2017-02-12 12:55:24,400 - ShoppingList - DEBUG - Box
2017-02-12 12:55:32,037 - ShoppingList - INFO - Send mail to Enrico Arbeit <enrico.bahls@dataglobal.com>
2017-02-12 12:59:05,748 - ShoppingList - INFO - Start
2017-02-12 12:59:18,561 - ShoppingList - INFO - Start
2017-02-12 13:00:08,048 - ShoppingList - INFO - Start
2017-02-12 13:00:08,169 - ShoppingList - INFO - Start
2017-02-12 13:00:08,181 - ShoppingList - INFO - Start
2017-02-12 13:00:08,316 - ShoppingList - INFO - Start
2017-02-12 13:00:19,842 - ShoppingList - INFO - Send mail to Enrico Arbeit <enrico.bahls@dataglobal.com>
2017-02-12 13:03:56,459 - ShoppingList - INFO - Start
2017-02-12 13:03:56,486 - ShoppingList - INFO - Start
2017-02-12 13:03:56,513 - ShoppingList - INFO - Start
2017-02-12 13:03:56,823 - ShoppingList - INFO - Start
2017-02-12 13:04:11,102 - ShoppingList - INFO - Send mail to Enrico Arbeit <enrico.bahls@dataglobal.com>
2017-02-12 13:04:37,469 - ShoppingList - INFO - Send mail to Enrico Arbeit <enrico.bahls@dataglobal.com>
2017-02-12 13:05:35,594 - ShoppingList - INFO - Start
2017-02-12 13:05:39,920 - ShoppingList - INFO - Start
2017-02-12 13:05:43,964 - ShoppingList - INFO - Send mail to Enrico Arbeit <enrico.bahls@dataglobal.com>
2017-02-12 13:05:59,000 - ShoppingList - INFO - Start
2017-02-12 13:06:04,754 - ShoppingList - INFO - Start
2017-02-12 13:06:04,799 - ShoppingList - INFO - Start
