2017-01-28 18:25:49,124 - ShoppingList - INFO - Start
2017-01-28 18:25:51,047 - ShoppingList - INFO - Start
2017-01-28 18:26:49,510 - ShoppingList - INFO - Start
2017-01-28 18:27:15,096 - ShoppingList - INFO - Start
2017-01-28 18:27:21,886 - ShoppingList - INFO - Start
2017-01-28 18:28:54,131 - ShoppingList - INFO - Start
2017-01-28 18:29:32,891 - ShoppingList - INFO - Start
2017-01-28 18:29:34,788 - ShoppingList - INFO - Start
2017-01-28 18:33:48,599 - ShoppingList - INFO - Start
2017-01-28 18:33:54,050 - ShoppingList - INFO - Start
2017-01-28 18:33:55,966 - ShoppingList - INFO - Start
2017-01-28 18:37:35,853 - ShoppingList - INFO - Start
2017-01-28 18:40:42,892 - ShoppingList - INFO - Start
2017-01-28 18:44:54,154 - ShoppingList - INFO - Start
2017-01-28 18:44:56,063 - ShoppingList - INFO - Start
2017-01-28 18:58:15,069 - ShoppingList - INFO - Start
2017-01-28 18:58:48,771 - ShoppingList - INFO - Start
2017-01-28 18:58:50,772 - ShoppingList - INFO - Start
2017-01-28 19:02:25,312 - ShoppingList - INFO - Start
2017-01-28 19:03:08,425 - ShoppingList - INFO - Start
2017-01-28 19:04:23,867 - ShoppingList - INFO - Start
2017-01-28 19:04:25,795 - ShoppingList - INFO - Start
2017-01-28 19:06:54,540 - ShoppingList - INFO - Start
2017-01-28 19:17:50,813 - ShoppingList - INFO - Start
2017-01-28 19:23:42,151 - ShoppingList - INFO - Start
2017-01-28 19:25:19,525 - ShoppingList - INFO - Start
2017-01-28 19:26:01,343 - ShoppingList - INFO - Start
2017-01-28 19:26:11,600 - ShoppingList - INFO - Start
2017-01-28 19:26:13,562 - ShoppingList - INFO - Start
2017-01-28 19:27:05,901 - ShoppingList - INFO - Start
2017-01-29 16:08:37,160 - ShoppingList - INFO - Start
2017-01-29 16:08:47,482 - ShoppingList - INFO - Start
2017-01-29 16:10:49,005 - ShoppingList - INFO - Start
2017-01-29 16:12:32,278 - ShoppingList - INFO - Start
2017-01-29 16:13:09,900 - ShoppingList - INFO - Start
2017-01-29 16:13:11,816 - ShoppingList - INFO - Start
2017-01-29 16:48:17,708 - ShoppingList - INFO - Start
2017-01-29 16:49:28,068 - ShoppingList - INFO - Start
2017-01-29 16:50:06,925 - ShoppingList - INFO - Start
2017-01-29 16:50:23,608 - ShoppingList - INFO - Start
2017-01-29 16:51:00,963 - ShoppingList - INFO - Start
2017-01-29 16:51:02,927 - ShoppingList - INFO - Start
2017-01-29 16:55:50,895 - ShoppingList - INFO - Start
2017-01-29 16:56:02,493 - ShoppingList - INFO - add Chips with url http://zbox:5000/query/product/1 to Print List
2017-01-29 16:56:02,494 - ShoppingList - INFO - add Kochschinken with url http://zbox:5000/query/product/2 to Print List
2017-01-29 16:56:02,495 - ShoppingList - INFO - add Milch with url http://zbox:5000/query/product/3 to Print List
2017-01-29 16:57:16,783 - ShoppingList - INFO - Start
2017-01-29 16:57:24,090 - ShoppingList - INFO - add Chips with url http://zbox:5000/query/product/1 to Print List
2017-01-29 16:57:24,092 - ShoppingList - INFO - add Kochschinken with url http://zbox:5000/query/product/2 to Print List
2017-01-29 16:57:24,092 - ShoppingList - INFO - add Milch with url http://zbox:5000/query/product/3 to Print List
2017-01-29 16:58:29,376 - ShoppingList - INFO - Start
2017-01-29 16:58:38,335 - ShoppingList - INFO - add Chips with url http://zbox:5000/query/product/1 to Print List
2017-01-29 16:58:38,336 - ShoppingList - INFO - add Kochschinken with url http://zbox:5000/query/product/2 to Print List
2017-01-29 16:58:38,336 - ShoppingList - INFO - add Milch with url http://zbox:5000/query/product/3 to Print List
2017-01-29 17:00:18,222 - ShoppingList - INFO - Start
2017-01-29 17:00:41,770 - ShoppingList - INFO - Start
2017-01-29 17:00:43,738 - ShoppingList - INFO - Start
2017-01-29 17:05:23,737 - ShoppingList - INFO - Start
2017-01-29 17:05:59,400 - ShoppingList - INFO - Start
2017-01-29 17:06:10,110 - ShoppingList - INFO - add Chips with url http://zbox:5000/query/product/1 to Print List
2017-01-29 17:06:10,111 - ShoppingList - INFO - add Kochschinken with url http://zbox:5000/query/product/2 to Print List
2017-01-29 17:14:06,217 - ShoppingList - INFO - Start
2017-01-29 17:14:21,949 - ShoppingList - INFO - update url http://zbox:5000/query/product/1 to 2 Print List
2017-01-29 17:14:36,030 - ShoppingList - INFO - update url http://zbox:5000/query/product/1 to 3 Print List
2017-01-29 17:14:36,042 - ShoppingList - INFO - update url http://zbox:5000/query/product/2 to 2 Print List
2017-01-29 17:14:36,052 - ShoppingList - INFO - add Milch with url http://zbox:5000/query/product/3 to Print List
2017-01-29 17:15:35,893 - ShoppingList - INFO - Start
2017-01-29 17:16:04,594 - ShoppingList - INFO - add Kochschinken with url http://zbox:5000/query/product/2 to Print List
2017-01-29 17:16:04,610 - ShoppingList - INFO - add Milch with url http://zbox:5000/query/product/3 to Print List
2017-01-29 17:16:11,638 - ShoppingList - INFO - add Chips with url http://zbox:5000/query/product/1 to Print List
2017-01-29 17:16:11,651 - ShoppingList - INFO - update url http://zbox:5000/query/product/2 to 2 Print List
2017-01-29 17:16:11,660 - ShoppingList - INFO - update url http://zbox:5000/query/product/3 to 2 Print List
2017-01-29 17:23:24,630 - ShoppingList - INFO - Start
2017-01-29 17:25:06,346 - ShoppingList - INFO - Start
2017-01-29 17:25:32,421 - ShoppingList - INFO - Start
2017-01-29 17:26:17,566 - ShoppingList - INFO - Start
2017-01-29 17:26:30,889 - ShoppingList - INFO - Start
2017-01-29 17:26:32,845 - ShoppingList - INFO - Start
2017-01-29 17:29:45,173 - ShoppingList - INFO - Start
2017-01-29 17:29:55,038 - ShoppingList - INFO - add Kühlschrank with url http://zbox:5000/query/location/1 to Print List
2017-01-29 17:29:55,052 - ShoppingList - INFO - add Gefriertruhe with url http://zbox:5000/query/location/3 to Print List
2017-01-29 17:35:59,834 - ShoppingList - INFO - Start
2017-01-29 17:37:46,139 - ShoppingList - INFO - Start
2017-01-29 17:43:07,479 - ShoppingList - INFO - add Kühlschrank with url http://zbox:5000/query/location/1 to Print List
2017-01-29 17:43:07,494 - ShoppingList - INFO - add Komode with url http://zbox:5000/query/location/2 to Print List
2017-01-29 17:43:07,506 - ShoppingList - INFO - update url http://zbox:5000/query/location/3 to 2 Print List
2017-01-29 17:43:07,518 - ShoppingList - INFO - add Keller with url http://zbox:5000/query/location/4 to Print List
2017-01-29 20:25:54,525 - ShoppingList - INFO - Start
2017-01-29 20:26:25,741 - ShoppingList - INFO - Start
2017-01-29 20:26:27,642 - ShoppingList - INFO - Start
2017-01-29 20:27:14,336 - ShoppingList - INFO - Start
2017-01-29 20:27:50,060 - ShoppingList - INFO - Start
2017-01-29 20:30:06,258 - ShoppingList - INFO - somthing new
2017-01-29 20:30:06,263 - ShoppingList - INFO - somthing new
2017-01-29 20:31:57,973 - ShoppingList - INFO - Start
2017-01-29 20:32:13,453 - ShoppingList - INFO - request
2017-01-29 20:32:45,125 - ShoppingList - INFO - Start
2017-01-29 20:32:49,227 - ShoppingList - INFO - request
2017-01-29 20:33:44,210 - ShoppingList - INFO - request
2017-01-29 20:34:00,716 - ShoppingList - INFO - request
2017-01-29 20:34:15,356 - ShoppingList - INFO - request
2017-01-29 20:39:19,129 - ShoppingList - INFO - Start
2017-01-29 20:41:09,663 - ShoppingList - INFO - Start
2017-01-29 20:41:20,788 - ShoppingList - INFO - Start
2017-01-29 20:41:22,652 - ShoppingList - INFO - Start
2017-01-29 20:43:39,634 - ShoppingList - INFO - Start
2017-01-29 20:46:26,111 - ShoppingList - INFO - Start
2017-01-29 20:48:14,206 - ShoppingList - INFO - Start
2017-01-29 20:48:26,664 - ShoppingList - INFO - add Chips with url http://zbox:5000/query/product/1 to Print List
2017-01-29 20:48:26,680 - ShoppingList - INFO - add Kochschinken with url http://zbox:5000/query/product/2 to Print List
2017-01-29 20:48:26,692 - ShoppingList - INFO - add Milch with url http://zbox:5000/query/product/3 to Print List
2017-01-29 21:06:31,641 - ShoppingList - INFO - add Kühlschrank with url http://zbox5000//query/location/1 to Print List
2017-01-29 21:06:31,654 - ShoppingList - INFO - add Komode with url http://zbox5000//query/location/2 to Print List
2017-01-29 21:06:31,664 - ShoppingList - INFO - add Gefriertruhe with url http://zbox5000//query/location/3 to Print List
2017-01-29 21:06:31,671 - ShoppingList - INFO - add Keller with url http://zbox5000//query/location/4 to Print List
2017-01-29 21:07:38,269 - ShoppingList - INFO - Start
2017-01-29 21:12:46,282 - ShoppingList - INFO - Start
2017-01-29 21:12:48,171 - ShoppingList - INFO - Start
2017-01-29 21:14:04,123 - ShoppingList - INFO - Start
2017-01-29 21:15:04,789 - ShoppingList - INFO - Start
2017-01-29 21:15:18,083 - ShoppingList - INFO - Start
2017-01-29 21:15:29,310 - ShoppingList - INFO - Start
2017-01-29 21:15:41,150 - ShoppingList - INFO - Start
2017-01-29 21:15:56,967 - ShoppingList - INFO - Start
2017-01-29 21:15:58,896 - ShoppingList - INFO - Start
2017-01-29 21:35:46,272 - ShoppingList - INFO - Start
2017-01-29 21:40:24,038 - ShoppingList - INFO - Start
2017-01-29 21:40:25,893 - ShoppingList - INFO - Start
2017-01-29 21:42:03,218 - ShoppingList - INFO - Start
2017-01-29 21:50:54,419 - ShoppingList - INFO - Start
2017-01-29 21:53:27,834 - ShoppingList - INFO - Start
2017-01-29 21:54:43,739 - ShoppingList - INFO - Start
2017-01-29 21:54:49,201 - ShoppingList - INFO - add Chips with url http://zbox:5000/query/product/1 to Print List
2017-01-29 21:54:49,214 - ShoppingList - INFO - add Kochschinken with url http://zbox:5000/query/product/2 to Print List
2017-01-29 21:54:49,224 - ShoppingList - INFO - add Milch with url http://zbox:5000/query/product/3 to Print List
2017-01-29 21:55:01,759 - ShoppingList - INFO - update url http://zbox:5000/query/product/1 to 2 Print List
2017-01-29 21:55:01,769 - ShoppingList - INFO - update url http://zbox:5000/query/product/2 to 2 Print List
2017-01-29 21:55:01,776 - ShoppingList - INFO - update url http://zbox:5000/query/product/3 to 2 Print List
2017-01-29 22:02:02,732 - ShoppingList - INFO - Start
2017-01-29 22:02:29,404 - ShoppingList - INFO - Start
